\relax 
\providecommand\hyper@newdestlabel[2]{}
\providecommand\HyperFirstAtBeginDocument{\AtBeginDocument}
\HyperFirstAtBeginDocument{\ifx\hyper@anchor\@undefined
\global\let\oldcontentsline\contentsline
\gdef\contentsline#1#2#3#4{\oldcontentsline{#1}{#2}{#3}}
\global\let\oldnewlabel\newlabel
\gdef\newlabel#1#2{\newlabelxx{#1}#2}
\gdef\newlabelxx#1#2#3#4#5#6{\oldnewlabel{#1}{{#2}{#3}}}
\AtEndDocument{\ifx\hyper@anchor\@undefined
\let\contentsline\oldcontentsline
\let\newlabel\oldnewlabel
\fi}
\fi}
\global\let\hyper@last\relax 
\gdef\HyperFirstAtBeginDocument#1{#1}
\providecommand\HyField@AuxAddToFields[1]{}
\providecommand\HyField@AuxAddToCoFields[2]{}
\@writefile{nav}{\headcommand {\slideentry {0}{0}{1}{1/1}{}{0}}}
\@writefile{nav}{\headcommand {\beamer@framepages {1}{1}}}
\@writefile{toc}{\beamer@subsectionintoc {0}{1}{Population of mass transfer accretion disks}{2}{0}{0}}
\@writefile{nav}{\headcommand {\beamer@subsectionpages {1}{1}}}
\@writefile{nav}{\headcommand {\beamer@subsectionentry {0}{0}{1}{2}{Population of mass transfer accretion disks}}}
\@writefile{nav}{\headcommand {\slideentry {0}{1}{1}{2/2}{Population of mass transfer accretion disks}{0}}}
\@writefile{nav}{\headcommand {\beamer@framepages {2}{2}}}
\@writefile{toc}{\beamer@sectionintoc {1}{Introduction}{4}{0}{1}}
\@writefile{nav}{\headcommand {\beamer@sectionpages {1}{3}}}
\@writefile{nav}{\headcommand {\beamer@subsectionpages {2}{3}}}
\@writefile{nav}{\headcommand {\sectionentry {1}{Introduction}{4}{Introduction}{0}}}
\@writefile{nav}{\headcommand {\slideentry {1}{0}{1}{4/4}{}{0}}}
\@writefile{nav}{\headcommand {\beamer@framepages {4}{4}}}
\@writefile{toc}{\beamer@subsectionintoc {1}{1}{Intro}{5}{0}{1}}
\@writefile{nav}{\headcommand {\beamer@subsectionpages {4}{4}}}
\@writefile{nav}{\headcommand {\beamer@subsectionentry {0}{1}{1}{5}{Intro}}}
\@writefile{nav}{\headcommand {\slideentry {1}{1}{1}{5/5}{Intro}{0}}}
\@writefile{nav}{\headcommand {\beamer@framepages {5}{5}}}
\@writefile{toc}{\beamer@subsectionintoc {1}{2}{Problem}{6}{0}{1}}
\@writefile{nav}{\headcommand {\beamer@subsectionpages {5}{5}}}
\@writefile{nav}{\headcommand {\beamer@subsectionentry {0}{1}{2}{6}{Problem}}}
\@writefile{nav}{\headcommand {\slideentry {1}{2}{1}{6/6}{Problem}{0}}}
\@writefile{nav}{\headcommand {\beamer@framepages {6}{6}}}
\@writefile{nav}{\headcommand {\slideentry {1}{2}{2}{7/7}{Problem}{0}}}
\@writefile{nav}{\headcommand {\beamer@framepages {7}{7}}}
\@writefile{toc}{\beamer@subsectionintoc {1}{3}{Possible solutions}{8}{0}{1}}
\@writefile{nav}{\headcommand {\beamer@subsectionpages {6}{7}}}
\@writefile{nav}{\headcommand {\beamer@subsectionentry {0}{1}{3}{8}{Possible solutions}}}
\@writefile{nav}{\headcommand {\slideentry {1}{3}{1}{8/8}{Possible solutions}{0}}}
\@writefile{nav}{\headcommand {\beamer@framepages {8}{8}}}
\@writefile{nav}{\headcommand {\slideentry {1}{3}{2}{9/9}{Possible solutions}{0}}}
\@writefile{nav}{\headcommand {\beamer@framepages {9}{9}}}
\@writefile{toc}{\beamer@sectionintoc {2}{Accretion disks}{10}{0}{2}}
\@writefile{nav}{\headcommand {\beamer@sectionpages {4}{9}}}
\@writefile{nav}{\headcommand {\beamer@subsectionpages {8}{9}}}
\@writefile{nav}{\headcommand {\sectionentry {2}{Accretion disks}{10}{Accretion disks}{0}}}
\@writefile{nav}{\headcommand {\slideentry {2}{0}{1}{10/10}{}{0}}}
\@writefile{nav}{\headcommand {\beamer@framepages {10}{10}}}
\@writefile{toc}{\beamer@subsectionintoc {2}{1}{Accretion disks}{11}{0}{2}}
\@writefile{nav}{\headcommand {\beamer@subsectionpages {10}{10}}}
\@writefile{nav}{\headcommand {\beamer@subsectionentry {0}{2}{1}{11}{Accretion disks}}}
\@writefile{nav}{\headcommand {\slideentry {2}{1}{1}{11/11}{Accretion disks}{0}}}
\@writefile{nav}{\headcommand {\beamer@framepages {11}{11}}}
\@writefile{toc}{\beamer@subsectionintoc {2}{2}{Properties of disks}{12}{0}{2}}
\@writefile{nav}{\headcommand {\beamer@subsectionpages {11}{11}}}
\@writefile{nav}{\headcommand {\beamer@subsectionentry {0}{2}{2}{12}{Properties of disks}}}
\@writefile{nav}{\headcommand {\slideentry {2}{2}{1}{12/12}{Properties of disks}{0}}}
\@writefile{nav}{\headcommand {\beamer@framepages {12}{12}}}
\@writefile{nav}{\headcommand {\slideentry {2}{2}{2}{13/13}{Properties of disks}{0}}}
\@writefile{nav}{\headcommand {\beamer@framepages {13}{13}}}
\@writefile{toc}{\beamer@subsectionintoc {2}{3}{Disks and evolution}{14}{0}{2}}
\@writefile{nav}{\headcommand {\beamer@subsectionpages {12}{13}}}
\@writefile{nav}{\headcommand {\beamer@subsectionentry {0}{2}{3}{14}{Disks and evolution}}}
\@writefile{toc}{\beamer@subsectionintoc {2}{4}{Accretion Disks in mass transferring binary systems}{14}{0}{2}}
\@writefile{nav}{\headcommand {\beamer@subsectionpages {14}{13}}}
\@writefile{nav}{\headcommand {\beamer@subsectionentry {0}{2}{4}{14}{Accretion Disks in mass transferring binary systems}}}
\@writefile{nav}{\headcommand {\slideentry {2}{4}{1}{14/14}{Accretion Disks in mass transferring binary systems}{0}}}
\@writefile{nav}{\headcommand {\beamer@framepages {14}{14}}}
\citation{papaloizou_tidal_1977}
\@writefile{nav}{\headcommand {\slideentry {2}{4}{2}{15/15}{Accretion Disks in mass transferring binary systems}{0}}}
\@writefile{nav}{\headcommand {\beamer@framepages {15}{15}}}
\@writefile{toc}{\beamer@sectionintoc {3}{Disk mass loss}{16}{0}{3}}
\@writefile{nav}{\headcommand {\beamer@sectionpages {10}{15}}}
\@writefile{nav}{\headcommand {\beamer@subsectionpages {14}{15}}}
\@writefile{nav}{\headcommand {\sectionentry {3}{Disk mass loss}{16}{Disk mass loss}{0}}}
\@writefile{nav}{\headcommand {\slideentry {3}{0}{1}{16/16}{}{0}}}
\@writefile{nav}{\headcommand {\beamer@framepages {16}{16}}}
\@writefile{toc}{\beamer@subsectionintoc {3}{1}{General idea}{17}{0}{3}}
\@writefile{nav}{\headcommand {\beamer@subsectionpages {16}{16}}}
\@writefile{nav}{\headcommand {\beamer@subsectionentry {0}{3}{1}{17}{General idea}}}
\@writefile{nav}{\headcommand {\slideentry {3}{1}{1}{17/17}{General idea}{0}}}
\@writefile{nav}{\headcommand {\beamer@framepages {17}{17}}}
\@writefile{toc}{\beamer@subsectionintoc {3}{2}{Types of mass loss from disk}{18}{0}{3}}
\@writefile{nav}{\headcommand {\beamer@subsectionpages {17}{17}}}
\@writefile{nav}{\headcommand {\beamer@subsectionentry {0}{3}{2}{18}{Types of mass loss from disk}}}
\@writefile{nav}{\headcommand {\slideentry {3}{2}{1}{18/18}{Types of mass loss from disk}{0}}}
\@writefile{nav}{\headcommand {\beamer@framepages {18}{18}}}
\@writefile{nav}{\headcommand {\slideentry {3}{2}{2}{19/19}{Types of mass loss from disk}{0}}}
\@writefile{nav}{\headcommand {\beamer@framepages {19}{19}}}
\@writefile{nav}{\headcommand {\slideentry {3}{2}{3}{20/20}{Types of mass loss from disk}{0}}}
\@writefile{nav}{\headcommand {\beamer@framepages {20}{20}}}
\@writefile{nav}{\headcommand {\slideentry {3}{2}{4}{21/21}{Types of mass loss from disk}{0}}}
\@writefile{nav}{\headcommand {\beamer@framepages {21}{21}}}
\@writefile{nav}{\headcommand {\slideentry {3}{2}{5}{22/22}{Types of mass loss from disk}{0}}}
\@writefile{nav}{\headcommand {\beamer@framepages {22}{22}}}
\@writefile{toc}{\beamer@sectionintoc {4}{Methods}{23}{0}{4}}
\@writefile{nav}{\headcommand {\beamer@sectionpages {16}{22}}}
\@writefile{nav}{\headcommand {\beamer@subsectionpages {18}{22}}}
\@writefile{nav}{\headcommand {\sectionentry {4}{Methods}{23}{Methods}{0}}}
\@writefile{nav}{\headcommand {\slideentry {4}{0}{1}{23/23}{}{0}}}
\@writefile{nav}{\headcommand {\beamer@framepages {23}{23}}}
\citation{izzard_new_2004}
\citation{krumholz_vader:_2014}
\citation{paxton_modules_2011}
\@writefile{toc}{\beamer@subsectionintoc {4}{1}{Codes}{24}{0}{4}}
\@writefile{nav}{\headcommand {\beamer@subsectionpages {23}{23}}}
\@writefile{nav}{\headcommand {\beamer@subsectionentry {0}{4}{1}{24}{Codes}}}
\@writefile{nav}{\headcommand {\slideentry {4}{1}{1}{24/24}{Codes}{0}}}
\@writefile{nav}{\headcommand {\beamer@framepages {24}{24}}}
\@writefile{nav}{\headcommand {\slideentry {4}{1}{2}{25/25}{Codes}{0}}}
\@writefile{nav}{\headcommand {\beamer@framepages {25}{25}}}
\@writefile{toc}{\beamer@sectionintoc {5}{Results}{26}{0}{5}}
\@writefile{nav}{\headcommand {\beamer@sectionpages {23}{25}}}
\@writefile{nav}{\headcommand {\beamer@subsectionpages {24}{25}}}
\@writefile{nav}{\headcommand {\sectionentry {5}{Results}{26}{Results}{0}}}
\@writefile{nav}{\headcommand {\slideentry {5}{0}{1}{26/26}{}{0}}}
\@writefile{nav}{\headcommand {\beamer@framepages {26}{26}}}
\@writefile{toc}{\beamer@subsectionintoc {5}{1}{Population of mass transfer accretion disks}{27}{0}{5}}
\@writefile{nav}{\headcommand {\beamer@subsectionpages {26}{26}}}
\@writefile{nav}{\headcommand {\beamer@subsectionentry {0}{5}{1}{27}{Population of mass transfer accretion disks}}}
\@writefile{toc}{\beamer@subsectionintoc {5}{2}{Disk mass loss}{27}{0}{5}}
\@writefile{nav}{\headcommand {\beamer@subsectionpages {27}{26}}}
\@writefile{nav}{\headcommand {\beamer@subsectionentry {0}{5}{2}{27}{Disk mass loss}}}
\@writefile{toc}{\beamer@sectionintoc {6}{Summary}{27}{0}{6}}
\@writefile{nav}{\headcommand {\beamer@sectionpages {26}{26}}}
\@writefile{nav}{\headcommand {\beamer@subsectionpages {27}{26}}}
\@writefile{nav}{\headcommand {\sectionentry {6}{Summary}{27}{Summary}{0}}}
\@writefile{nav}{\headcommand {\slideentry {6}{0}{1}{27/27}{}{0}}}
\@writefile{nav}{\headcommand {\beamer@framepages {27}{27}}}
\bibstyle{unsrtnat}
\bibdata{david_project_disk}
\@writefile{nav}{\headcommand {\beamer@partpages {1}{28}}}
\@writefile{nav}{\headcommand {\beamer@subsectionpages {27}{28}}}
\@writefile{nav}{\headcommand {\beamer@sectionpages {27}{28}}}
\@writefile{nav}{\headcommand {\beamer@documentpages {28}}}
\@writefile{nav}{\headcommand {\gdef \inserttotalframenumber {20}}}
